\relax 
\providecommand\hyper@newdestlabel[2]{}
\providecommand\HyperFirstAtBeginDocument{\AtBeginDocument}
\HyperFirstAtBeginDocument{\ifx\hyper@anchor\@undefined
\global\let\oldcontentsline\contentsline
\gdef\contentsline#1#2#3#4{\oldcontentsline{#1}{#2}{#3}}
\global\let\oldnewlabel\newlabel
\gdef\newlabel#1#2{\newlabelxx{#1}#2}
\gdef\newlabelxx#1#2#3#4#5#6{\oldnewlabel{#1}{{#2}{#3}}}
\AtEndDocument{\ifx\hyper@anchor\@undefined
\let\contentsline\oldcontentsline
\let\newlabel\oldnewlabel
\fi}
\fi}
\global\let\hyper@last\relax 
\gdef\HyperFirstAtBeginDocument#1{#1}
\providecommand\HyField@AuxAddToFields[1]{}
\providecommand\HyField@AuxAddToCoFields[2]{}
\select@language{english}
\@writefile{toc}{\select@language{english}}
\@writefile{lof}{\select@language{english}}
\@writefile{lot}{\select@language{english}}
\newlabel{index::doc}{{}{1}{}{section*.2}{}}
\@writefile{toc}{\contentsline {chapter}{\numberline {1}Testing your site with the Drupal Extension to Behat and Mink}{3}{chapter.1}}
\@writefile{lof}{\addvspace {10\p@ }}
\@writefile{lot}{\addvspace {10\p@ }}
\newlabel{intro:welcome-to-the-drupal-extension-to-behat-and-mink-s-documentation}{{1}{3}{Testing your site with the Drupal Extension to Behat and Mink}{chapter.1}{}}
\newlabel{intro:testing-your-site-with-the-drupal-extension-to-behat-and-mink}{{1}{3}{Testing your site with the Drupal Extension to Behat and Mink}{chapter.1}{}}
\newlabel{intro::doc}{{1}{3}{Testing your site with the Drupal Extension to Behat and Mink}{chapter.1}{}}
\@writefile{toc}{\contentsline {section}{\numberline {1.1}What do Behat and Mink Do?}{3}{section.1.1}}
\newlabel{intro:what-do-behat-and-mink-do}{{1.1}{3}{What do Behat and Mink Do?}{section.1.1}{}}
\@writefile{toc}{\contentsline {section}{\numberline {1.2}What does the Drupal Extension add?}{3}{section.1.2}}
\newlabel{intro:what-does-the-drupal-extension-add}{{1.2}{3}{What does the Drupal Extension add?}{section.1.2}{}}
\@writefile{toc}{\contentsline {chapter}{\numberline {2}System Requirements}{5}{chapter.2}}
\@writefile{lof}{\addvspace {10\p@ }}
\@writefile{lot}{\addvspace {10\p@ }}
\newlabel{requirements::doc}{{2}{5}{System Requirements}{chapter.2}{}}
\newlabel{requirements:index-0}{{2}{5}{System Requirements}{chapter.2}{}}
\newlabel{requirements:system-requirements}{{2}{5}{System Requirements}{chapter.2}{}}
\@writefile{toc}{\contentsline {section}{\numberline {2.1}Meet the system requirements}{5}{section.2.1}}
\newlabel{requirements:meet-the-system-requirements}{{2.1}{5}{Meet the system requirements}{section.2.1}{}}
\@writefile{toc}{\contentsline {chapter}{\numberline {3}Stand-alone installation}{7}{chapter.3}}
\@writefile{lof}{\addvspace {10\p@ }}
\@writefile{lot}{\addvspace {10\p@ }}
\newlabel{localinstall::doc}{{3}{7}{Stand-alone installation}{chapter.3}{}}
\newlabel{localinstall:stand-alone-installation}{{3}{7}{Stand-alone installation}{chapter.3}{}}
\@writefile{toc}{\contentsline {chapter}{\numberline {4}Windows Installation: WAMP}{11}{chapter.4}}
\@writefile{lof}{\addvspace {10\p@ }}
\@writefile{lot}{\addvspace {10\p@ }}
\newlabel{wamp:windows-installation-wamp}{{4}{11}{Windows Installation: WAMP}{chapter.4}{}}
\newlabel{wamp::doc}{{4}{11}{Windows Installation: WAMP}{chapter.4}{}}
\@writefile{toc}{\contentsline {section}{\numberline {4.1}System Requirements}{11}{section.4.1}}
\newlabel{wamp:system-requirements}{{4.1}{11}{System Requirements}{section.4.1}{}}
\@writefile{toc}{\contentsline {chapter}{\numberline {5}System-wide installation}{13}{chapter.5}}
\@writefile{lof}{\addvspace {10\p@ }}
\@writefile{lot}{\addvspace {10\p@ }}
\newlabel{globalinstall::doc}{{5}{13}{System-wide installation}{chapter.5}{}}
\newlabel{globalinstall:system-wide-installation}{{5}{13}{System-wide installation}{chapter.5}{}}
\@writefile{toc}{\contentsline {section}{\numberline {5.1}Overview}{13}{section.5.1}}
\newlabel{globalinstall:overview}{{5.1}{13}{Overview}{section.5.1}{}}
\@writefile{toc}{\contentsline {section}{\numberline {5.2}Install Composer}{13}{section.5.2}}
\newlabel{globalinstall:install-composer}{{5.2}{13}{Install Composer}{section.5.2}{}}
\@writefile{toc}{\contentsline {section}{\numberline {5.3}Install the Drupal Extension}{13}{section.5.3}}
\newlabel{globalinstall:install-the-drupal-extension}{{5.3}{13}{Install the Drupal Extension}{section.5.3}{}}
\@writefile{toc}{\contentsline {section}{\numberline {5.4}Set up tests}{14}{section.5.4}}
\newlabel{globalinstall:set-up-tests}{{5.4}{14}{Set up tests}{section.5.4}{}}
\@writefile{toc}{\contentsline {chapter}{\numberline {6}Drupal Extension Drivers}{17}{chapter.6}}
\@writefile{lof}{\addvspace {10\p@ }}
\@writefile{lot}{\addvspace {10\p@ }}
\newlabel{drivers:drupal-extension-drivers}{{6}{17}{Drupal Extension Drivers}{chapter.6}{}}
\newlabel{drivers::doc}{{6}{17}{Drupal Extension Drivers}{chapter.6}{}}
\@writefile{toc}{\contentsline {chapter}{\numberline {7}Blackbox Driver}{19}{chapter.7}}
\@writefile{lof}{\addvspace {10\p@ }}
\@writefile{lot}{\addvspace {10\p@ }}
\newlabel{blackbox:blackbox-driver}{{7}{19}{Blackbox Driver}{chapter.7}{}}
\newlabel{blackbox::doc}{{7}{19}{Blackbox Driver}{chapter.7}{}}
\@writefile{toc}{\contentsline {section}{\numberline {7.1}Region steps}{19}{section.7.1}}
\newlabel{blackbox:region-steps}{{7.1}{19}{Region steps}{section.7.1}{}}
\@writefile{toc}{\contentsline {section}{\numberline {7.2}Example:}{19}{section.7.2}}
\newlabel{blackbox:example}{{7.2}{19}{Example:}{section.7.2}{}}
\@writefile{toc}{\contentsline {chapter}{\numberline {8}Drush Driver}{23}{chapter.8}}
\@writefile{lof}{\addvspace {10\p@ }}
\@writefile{lot}{\addvspace {10\p@ }}
\newlabel{drush::doc}{{8}{23}{Drush Driver}{chapter.8}{}}
\newlabel{drush:drush-driver}{{8}{23}{Drush Driver}{chapter.8}{}}
\@writefile{toc}{\contentsline {section}{\numberline {8.1}Install Drush}{23}{section.8.1}}
\newlabel{drush:install-drush}{{8.1}{23}{Install Drush}{section.8.1}{}}
\@writefile{toc}{\contentsline {section}{\numberline {8.2}Create a Drush alias}{23}{section.8.2}}
\newlabel{drush:create-a-drush-alias}{{8.2}{23}{Create a Drush alias}{section.8.2}{}}
\@writefile{toc}{\contentsline {section}{\numberline {8.3}Enable the Drush driver in the behat.yml}{23}{section.8.3}}
\newlabel{drush:enable-the-drush-driver-in-the-behat-yml}{{8.3}{23}{Enable the Drush driver in the behat.yml}{section.8.3}{}}
\@writefile{toc}{\contentsline {section}{\numberline {8.4}Calling the Drush driver}{24}{section.8.4}}
\newlabel{drush:calling-the-drush-driver}{{8.4}{24}{Calling the Drush driver}{section.8.4}{}}
\@writefile{toc}{\contentsline {chapter}{\numberline {9}Drupal API Driver}{27}{chapter.9}}
\@writefile{lof}{\addvspace {10\p@ }}
\@writefile{lot}{\addvspace {10\p@ }}
\newlabel{drupalapi:drupal-api-driver}{{9}{27}{Drupal API Driver}{chapter.9}{}}
\newlabel{drupalapi::doc}{{9}{27}{Drupal API Driver}{chapter.9}{}}
\@writefile{toc}{\contentsline {section}{\numberline {9.1}Enable the Drupal API Driver}{27}{section.9.1}}
\newlabel{drupalapi:enable-the-drupal-api-driver}{{9.1}{27}{Enable the Drupal API Driver}{section.9.1}{}}
\@writefile{toc}{\contentsline {chapter}{\numberline {10}Contributed Module Subcontexts}{29}{chapter.10}}
\@writefile{lof}{\addvspace {10\p@ }}
\@writefile{lot}{\addvspace {10\p@ }}
\newlabel{subcontexts::doc}{{10}{29}{Contributed Module Subcontexts}{chapter.10}{}}
\newlabel{subcontexts:contributed-module-subcontexts}{{10}{29}{Contributed Module Subcontexts}{chapter.10}{}}
\@writefile{toc}{\contentsline {section}{\numberline {10.1}Discovering SubContexts}{29}{section.10.1}}
\newlabel{subcontexts:discovering-subcontexts}{{10.1}{29}{Discovering SubContexts}{section.10.1}{}}
\@writefile{toc}{\contentsline {section}{\numberline {10.2}Disable autoloading}{29}{section.10.2}}
\newlabel{subcontexts:disable-autoloading}{{10.2}{29}{Disable autoloading}{section.10.2}{}}
\@writefile{toc}{\contentsline {section}{\numberline {10.3}For Contributors}{30}{section.10.3}}
\newlabel{subcontexts:for-contributors}{{10.3}{30}{For Contributors}{section.10.3}{}}
